^C:\USERS\THERE\SOURCE\REPOS\CONSOLEGAME\CONSOLEGAME\DEBUG\GAME.OBJ|C:\USERS\THERE\SOURCE\REPOS\CONSOLEGAME\CONSOLEGAME\DEBUG\GEARSET.OBJ|C:\USERS\THERE\SOURCE\REPOS\CONSOLEGAME\CONSOLEGAME\DEBUG\INVENTORY.OBJ|C:\USERS\THERE\SOURCE\REPOS\CONSOLEGAME\CONSOLEGAME\DEBUG\INVENTORYMANAGER.OBJ|C:\USERS\THERE\SOURCE\REPOS\CONSOLEGAME\CONSOLEGAME\DEBUG\ITEM.OBJ|C:\USERS\THERE\SOURCE\REPOS\CONSOLEGAME\CONSOLEGAME\DEBUG\MAIN.OBJ|C:\USERS\THERE\SOURCE\REPOS\CONSOLEGAME\CONSOLEGAME\DEBUG\MENU.OBJ|C:\USERS\THERE\SOURCE\REPOS\CONSOLEGAME\CONSOLEGAME\DEBUG\PLAYER.OBJ
/OUT:"C:\USERS\THERE\SOURCE\REPOS\CONSOLEGAME\DEBUG\CONSOLEGAME.EXE" /INCREMENTAL /NOLOGO KERNEL32.LIB USER32.LIB GDI32.LIB WINSPOOL.LIB COMDLG32.LIB ADVAPI32.LIB SHELL32.LIB OLE32.LIB OLEAUT32.LIB UUID.LIB ODBC32.LIB ODBCCP32.LIB /MANIFEST /MANIFESTUAC:"level='asInvoker' uiAccess='false'" /manifest:embed /DEBUG:FASTLINK /PDB:"C:\USERS\THERE\SOURCE\REPOS\CONSOLEGAME\DEBUG\CONSOLEGAME.PDB" /TLBID:1 /DYNAMICBASE /NXCOMPAT /IMPLIB:"C:\USERS\THERE\SOURCE\REPOS\CONSOLEGAME\DEBUG\CONSOLEGAME.LIB" /MACHINE:X86 DEBUG\GAME.OBJDEBUG\GEARSET.OBJDEBUG\INVENTORY.OBJDEBUG\INVENTORYMANAGER.OBJDEBUG\ITEM.OBJDEBUG\MAIN.OBJDEBUG\MENU.OBJDEBUG\PLAYER.OBJ
^C:\USERS\THERE\DESKTOP\HOMEWORK\PROGRAMMINGC++2\CONSOLEGAME\CONSOLEGAME\DEBUG\BATTLE.OBJ|C:\USERS\THERE\DESKTOP\HOMEWORK\PROGRAMMINGC++2\CONSOLEGAME\CONSOLEGAME\DEBUG\CARD.OBJ|C:\USERS\THERE\DESKTOP\HOMEWORK\PROGRAMMINGC++2\CONSOLEGAME\CONSOLEGAME\DEBUG\CARDDECK.OBJ|C:\USERS\THERE\DESKTOP\HOMEWORK\PROGRAMMINGC++2\CONSOLEGAME\CONSOLEGAME\DEBUG\ENEMY.OBJ|C:\USERS\THERE\DESKTOP\HOMEWORK\PROGRAMMINGC++2\CONSOLEGAME\CONSOLEGAME\DEBUG\GAME.OBJ|C:\USERS\THERE\DESKTOP\HOMEWORK\PROGRAMMINGC++2\CONSOLEGAME\CONSOLEGAME\DEBUG\GEARSET.OBJ|C:\USERS\THERE\DESKTOP\HOMEWORK\PROGRAMMINGC++2\CONSOLEGAME\CONSOLEGAME\DEBUG\INVENTORY.OBJ|C:\USERS\THERE\DESKTOP\HOMEWORK\PROGRAMMINGC++2\CONSOLEGAME\CONSOLEGAME\DEBUG\INVENTORYMANAGER.OBJ|C:\USERS\THERE\DESKTOP\HOMEWORK\PROGRAMMINGC++2\CONSOLEGAME\CONSOLEGAME\DEBUG\ITEM.OBJ|C:\USERS\THERE\DESKTOP\HOMEWORK\PROGRAMMINGC++2\CONSOLEGAME\CONSOLEGAME\DEBUG\MAIN.OBJ|C:\USERS\THERE\DESKTOP\HOMEWORK\PROGRAMMINGC++2\CONSOLEGAME\CONSOLEGAME\DEBUG\MENU.OBJ|C:\USERS\THERE\DESKTOP\HOMEWORK\PROGRAMMINGC++2\CONSOLEGAME\CONSOLEGAME\DEBUG\PLAYER.OBJ
/OUT:"C:\USERS\THERE\DESKTOP\HOMEWORK\PROGRAMMINGC++2\CONSOLEGAME\DEBUG\CONSOLEGAME.EXE" /INCREMENTAL /NOLOGO KERNEL32.LIB USER32.LIB GDI32.LIB WINSPOOL.LIB COMDLG32.LIB ADVAPI32.LIB SHELL32.LIB OLE32.LIB OLEAUT32.LIB UUID.LIB ODBC32.LIB ODBCCP32.LIB /MANIFEST /MANIFESTUAC:"level='asInvoker' uiAccess='false'" /manifest:embed /DEBUG:FASTLINK /PDB:"C:\USERS\THERE\DESKTOP\HOMEWORK\PROGRAMMINGC++2\CONSOLEGAME\DEBUG\CONSOLEGAME.PDB" /TLBID:1 /DYNAMICBASE /NXCOMPAT /IMPLIB:"C:\USERS\THERE\DESKTOP\HOMEWORK\PROGRAMMINGC++2\CONSOLEGAME\DEBUG\CONSOLEGAME.LIB" /MACHINE:X86 DEBUG\BATTLE.OBJDEBUG\CARD.OBJDEBUG\CARDDECK.OBJDEBUG\ENEMY.OBJDEBUG\GAME.OBJDEBUG\GEARSET.OBJDEBUG\INVENTORY.OBJDEBUG\INVENTORYMANAGER.OBJDEBUG\ITEM.OBJDEBUG\MAIN.OBJDEBUG\MENU.OBJDEBUG\PLAYER.OBJ
